-------------------------------------------------------------------------------
Test set: Application.Main.MainWindowControllerTest
-------------------------------------------------------------------------------
Tests run: 4, Failures: 0, Errors: 0, Skipped: 0, Time elapsed: 0.015 sec - in Application.Main.MainWindowControllerTest
