-------------------------------------------------------------------------------
Test set: MainWindowControllerTest
-------------------------------------------------------------------------------
Tests run: 1, Failures: 0, Errors: 1, Skipped: 0, Time elapsed: 0.01 sec <<< FAILURE! - in MainWindowControllerTest
saveOnAction  Time elapsed: 0.01 sec  <<< ERROR!
java.lang.NullPointerException
	at MainWindowControllerTest.saveOnAction(MainWindowControllerTest.java:17)

